<?xml version="1.0" encoding="UTF-8"?>
<!-- Created with Inkscape (http://www.inkscape.org/) -->
<svg width="672" height="240" version="1.1" viewBox="0 0 672 240" xmlns="http://www.w3.org/2000/svg">
 <g fill-rule="evenodd" stroke="#000" stroke-linejoin="round" stroke-width="2">
  <ellipse cx="481.93" cy="120" rx="90" ry="89.999" fill="#ffb380" style="paint-order:normal"/>
  <ellipse cx="190.07" cy="120" rx="90" ry="90" fill="#f60" style="paint-order:normal"/>
  <ellipse cx="481.93" cy="120" rx="90" ry="24.649" fill="#f60" style="paint-order:normal"/>
 </g>
</svg>
