<?xml version="1.0" encoding="UTF-8" standalone="no"?>
<svg xmlns:rdf="http://www.w3.org/1999/02/22-rdf-syntax-ns#" xmlns="http://www.w3.org/2000/svg" version="1.0" xmlns:cc="http://creativecommons.org/ns#" xmlns:xlink="http://www.w3.org/1999/xlink" viewBox="0 0 96 96" xmlns:dc="http://purl.org/dc/elements/1.1/">
<defs>
<filter id="c">
<feTurbulence numOctaves="2" seed="394" type="turbulence" baseFrequency="0.038999999999999986"/>
</filter>
<filter id="d">
<feTurbulence baseFrequency="0.039" seed="394" result="result1" in="SourceAlpha" numOctaves="1" type="fractalNoise"/>
<feDisplacementMap scale="72.072072072072075" yChannelSelector="G" in2="result1" xChannelSelector="R" in="SourceGraphic"/>
</filter>
<linearGradient id="b">
<stop stop-color="#f0f" offset="0"/>
<stop stop-color="#7b85ff" offset=".51618499"/>
<stop stop-color="#00ff78" offset="1"/>
</linearGradient>
<linearGradient id="a" y2="470.36218" xlink:href="#b" gradientUnits="userSpaceOnUse" y1="564.36218" x2="281" x1="189"/>
</defs>
<metadata>
<rdf:RDF>
<cc:Work rdf:about="">
<dc:format>image/svg+xml</dc:format>
<dc:type rdf:resource="http://purl.org/dc/dcmitype/StillImage"/>
<dc:title>feDisplacementMap example</dc:title>
<dc:date>2008-01-21</dc:date>
<dc:creator>
<cc:Agent>
<dc:title>Felipe Corrêa da Silva Sanches</dc:title>
</cc:Agent>
</dc:creator>
<dc:rights>
<cc:Agent>
<dc:title>Felipe Corrêa da Silva Sanches</dc:title>
</cc:Agent>
</dc:rights>
<dc:publisher>
<cc:Agent>
<dc:title>Felipe Corrêa da Silva Sanches</dc:title>
</cc:Agent>
</dc:publisher>
<dc:identifier/>
<dc:source/>
<dc:relation/>
<dc:language/>
<dc:subject>
<rdf:Bag>
<rdf:li>feDisplacementMap example</rdf:li>
</rdf:Bag>
</dc:subject>
<dc:coverage/>
<dc:description>this is an image originally intended to be used in inkscape</dc:description>
<dc:contributor>
<cc:Agent>
<dc:title/>
</cc:Agent>
</dc:contributor>
<cc:license rdf:resource="http://creativecommons.org/licenses/by-sa/3.0/"/>
</cc:Work>
<cc:License rdf:about="http://creativecommons.org/licenses/by-sa/3.0/">
<cc:permits rdf:resource="http://creativecommons.org/ns#Reproduction"/>
<cc:permits rdf:resource="http://creativecommons.org/ns#Distribution"/>
<cc:requires rdf:resource="http://creativecommons.org/ns#Notice"/>
<cc:requires rdf:resource="http://creativecommons.org/ns#Attribution"/>
<cc:permits rdf:resource="http://creativecommons.org/ns#DerivativeWorks"/>
<cc:requires rdf:resource="http://creativecommons.org/ns#ShareAlike"/>
</cc:License>
</rdf:RDF>
</metadata>
<g fill-rule="evenodd">
<path d="m318 639.36218l-85.78456-63.26055-96.24467 45.8023 33.65548-101.13456-73.301817-77.38043 106.58479 0.75597 50.94166-93.62604 32.21754 101.60176 104.78549 19.51636-86.67325 62.03738 13.81934 105.68781z" transform="matrix(.1436647 0 0 .1436647 35.561255 -26.01207)" filter="url(#d)" fill="url(#a)"/>
<path stroke-linejoin="round" d="m36.925294 47.774608v3.672818l9.119216-0.333892-0.255678 3.005032 6.22152-4.674495-6.136294-4.674496 0.085225 3.320376-9.033989-0.315343z" stroke-opacity=".66120217" stroke="#000" stroke-linecap="round" stroke-dasharray="0.71576755000000003, 0.71576755000000003" stroke-width=".35788378" fill="#ffb31e"/>
<path d="m318 639.36218l-85.78456-63.26055-96.24467 45.8023 33.65548-101.13456-73.301817-77.38043 106.58479 0.75597 50.94166-93.62604 32.21754 101.60176 104.78549 19.51636-86.67325 62.03738 13.81934 105.68781z" transform="matrix(.1436647 0 0 .1436647 -9.397767 -46.202396)" fill="url(#a)"/>
<g stroke-linejoin="round" transform="matrix(.3422204 0 0 .3422204 -45.531148 -32.845379)" stroke="#000" stroke-linecap="round">
<rect opacity=".37700536" stroke-dasharray="4.224, 4.224" fill-opacity=".12765958" transform="translate(155.36416,264.88732)" height="87.060715" width="86.283394" y="4.2753038" x="5.0526314" stroke-width="1.408"/>
<rect stroke-dasharray="2.67905219, 2.67905219" transform="matrix(.8615096 0 0 .8615096 28.190903 43.278072)" height="82.853432" filter="url(#c)" width="82.113678" y="271.07193" x="162.50165" stroke-width="1.3395261"/>
</g>
<path stroke-linejoin="round" d="m18.405548 48.152494v3.513558l3.791885 0.014838-0.009228 3.348122 4.180022 0.203534-0.060174-3.608912 3.942312-0.092751-0.067171-3.335216-4.056628-0.135991 0.026081-3.999622-3.764979 0.165829 0.066576 3.981543-4.048696-0.054932z" stroke-opacity=".66120217" stroke="#000" stroke-linecap="round" stroke-dasharray="0.71576755000000003, 0.71576755000000003" stroke-width=".35788378" fill="#ffb31e"/>
</g>
</svg>
