<?xml version="1.0" encoding="UTF-8" standalone="no"?>
<svg xmlns:rdf="http://www.w3.org/1999/02/22-rdf-syntax-ns#" xmlns="http://www.w3.org/2000/svg" version="1.1" xmlns:cc="http://creativecommons.org/ns#" viewBox="0 0 249.50522 249.50523" xmlns:dc="http://purl.org/dc/elements/1.1/">
<metadata>
<rdf:RDF>
<cc:Work rdf:about="">
<dc:format>image/svg+xml</dc:format>
<dc:type rdf:resource="http://purl.org/dc/dcmitype/StillImage"/>
</cc:Work>
</rdf:RDF>
</metadata>
<g transform="translate(-218.10454,-476.18098)">
<path stroke-linejoin="round" d="m462.85715 600.93359c0 66.27417-53.72583 120-120 120s-120-53.72583-120-120 53.72583-120 120-120 120 53.72583 120 120zm182.9912 0c0 167.33742-135.65378 302.99121-302.9912 302.99121-167.33743 0-302.99121-135.65379-302.99121-302.99121s135.65378-302.9912 302.99121-302.9912c167.33742 0 302.9912 135.65378 302.9912 302.9912z" fill-rule="evenodd" transform="matrix(.3960511 0 0 .3960511 207.0682 362.93318)" stroke="#000" stroke-linecap="round" stroke-width="24" fill="#f00"/>
</g>
</svg>
