<?xml version="1.0" encoding="UTF-8" standalone="no"?>
<svg xmlns:rdf="http://www.w3.org/1999/02/22-rdf-syntax-ns#" xmlns="http://www.w3.org/2000/svg" version="1.1" xmlns:cc="http://creativecommons.org/ns#" xmlns:xlink="http://www.w3.org/1999/xlink" viewBox="0 0 12.009389 12.047082" xmlns:dc="http://purl.org/dc/elements/1.1/">
<metadata>
<rdf:RDF>
<cc:Work rdf:about="">
<dc:format>image/svg+xml</dc:format>
<dc:type rdf:resource="http://purl.org/dc/dcmitype/StillImage"/>
</cc:Work>
</rdf:RDF>
</metadata>
<defs>
<linearGradient id="d" y2="125.9596" gradientUnits="userSpaceOnUse" x2="89.70349" y1="125.8732" x1="85.64042">
<stop stop-color="#fff" offset="0"/>
<stop stop-color="#aaa" offset="1"/>
</linearGradient>
<linearGradient id="a">
<stop stop-color="#f3ff49" offset="0"/>
<stop stop-color="#ffa01e" offset="1"/>
</linearGradient>
<linearGradient id="i" y2="153.3422" xlink:href="#b" gradientUnits="userSpaceOnUse" x2="176.0136" y1="167.8534" x1="182.9813"/>
<linearGradient id="h" y2="37.21967" xlink:href="#b" gradientUnits="userSpaceOnUse" x2="-23.22442" gradientTransform="translate(200,120)" y1="34.12175" x1="-26.25288"/>
<linearGradient id="f" y2="117.8514" xlink:href="#a" gradientUnits="userSpaceOnUse" x2="89.75233" y1="119.8891" x1="85.2589"/>
<linearGradient id="g" y2="120.5792" xlink:href="#a" gradientUnits="userSpaceOnUse" x2="98.37736" gradientTransform="matrix(.833333 0 0 1 7.291667 1.125)" y1="120.625" x1="95.23788"/>
<linearGradient id="c">
<stop stop-color="#5a5a5a" offset="0"/>
<stop offset="1"/>
</linearGradient>
<linearGradient id="b">
<stop stop-color="#fff" offset="0"/>
<stop stop-color="#98b6d3" offset="1"/>
</linearGradient>
<linearGradient id="e" y2="117.4021" gradientUnits="userSpaceOnUse" x2="75.1424" gradientTransform="matrix(.845944 0 0 1 30.563 -.625005)" y1="123.2129" x1="65.27716">
<stop stop-color="#ffa01e" offset="0"/>
<stop offset="1"/>
</linearGradient>
<linearGradient id="j" y2="159" xlink:href="#c" gradientUnits="userSpaceOnUse" x2="186.7169" y1="159" x1="171.2831"/>
<linearGradient id="k" y2="125.3162" xlink:href="#c" gradientUnits="userSpaceOnUse" x2="91.62061" y1="125.3162" x1="84.62939"/>
</defs>
<g transform="matrix(.483821 0 0 .485303 -82.10684 -72.6514)">
<circle stroke-linejoin="round" style="color:#000000" stroke-width="1.7359509" stroke-opacity=".7081545" stroke-linecap="round" transform="matrix(1.125571,0,0,1.125565,-22.76161,-20.24985)" stroke="#9e9e9e" cy="159" cx="179" stroke-miterlimit="0" r="7" fill="none"/>
<rect style="color:#000000" height="24" width="24" y="150" x="170" fill="none"/>
<circle stroke-linejoin="round" style="color:#000000" stroke-width="1.4338813" fill-rule="evenodd" stroke-linecap="round" transform="matrix(1.075061,0,0,1.075185,-14.43475,-12.95411)" stroke="url(#j)" cy="159" cx="179" stroke-miterlimit="0" r="7" fill="url(#i)"/>
<path fill-rule="evenodd" fill="url(#h)" d="m172 160c5-1 4-6 9-7-2-2-5.5-1.1667-7 0s-3 5-2 7z"/>
<g transform="matrix(-.707107 .707107 -.732853 -.732853 338.9611 194.4488)" fill-rule="evenodd">
<path fill="url(#g)" d="m85.625 124.8009c1.66667-1 3.33333-1 5 0l-0.37872-8.8418c-1.34906-0.6533-2.61846-0.4612-4.16666 0l-0.45462 8.8418z"/>
<path stroke-linejoin="round" d="m90.62502 124.8009-0.04238-8.8198c-0.84595-1-4.18514-1.0458-5.03108-0.0458l0.07344 8.8656" stroke="url(#e)" stroke-linecap="round" stroke-width="1.9912179" fill="url(#f)"/>
<path stroke-linejoin="round" d="m85.625 124.8009 0.91846 1.7806c1.03983-0.2114 2.01992-0.173 3 0l1.08154-1.7806c-0.84594-1-4.15406-1-5 0z" stroke="url(#k)" stroke-linecap="round" stroke-width="1.9912179" fill="url(#d)"/>
</g>
</g>
</svg>
