<?xml version="1.0" encoding="UTF-8" standalone="no"?>
<svg xmlns:rdf="http://www.w3.org/1999/02/22-rdf-syntax-ns#" xmlns="http://www.w3.org/2000/svg" version="1.1" xmlns:cc="http://creativecommons.org/ns#" viewBox="0 0 15.999407 15.999846" xmlns:dc="http://purl.org/dc/elements/1.1/">
<metadata>
<rdf:RDF>
<cc:Work rdf:about="">
<dc:format>image/svg+xml</dc:format>
<dc:type rdf:resource="http://purl.org/dc/dcmitype/StillImage"/>
</cc:Work>
</rdf:RDF>
</metadata>
<g stroke-linejoin="round" stroke-miterlimit="0" transform="translate(-330.39832 -110.8335)">
<path style="color:#000000" d="m339.0043 147.223c-0.5586 0.3411-3.6668-2.4828-4.2989-2.6522-0.6528-0.1749-4.8622 0.6798-5.2144 0.1031-0.3411-0.5586 2.4828-3.6668 2.6522-4.2989 0.1749-0.6527-0.6798-4.8622-0.1031-5.2144 0.5586-0.341 3.6668 2.4828 4.2989 2.6522 0.6527 0.1749 4.8622-0.6798 5.2144-0.1031 0.341 0.5586-2.4829 3.6668-2.6522 4.2989-0.1749 0.6527 0.6798 4.8622 0.1031 5.2144z" transform="matrix(1.19879 -.3146184 .3093107 1.219499 -108.76 51.0626)" stroke="#c80000" stroke-dasharray="0.790274, 0.790274" stroke-width=".7902741" fill="none"/>
<path style="color:#000000" d="m339.0043 147.223c-0.5586 0.3411-3.6668-2.4828-4.2989-2.6522-0.6528-0.1749-4.8622 0.6798-5.2144 0.1031-0.3411-0.5586 2.4828-3.6668 2.6522-4.2989 0.1749-0.6527-0.6798-4.8622-0.1031-5.2144 0.5586-0.341 3.6668 2.4828 4.2989 2.6522 0.6527 0.1749 4.8622-0.6798 5.2144-0.1031 0.341 0.5586-2.4829 3.6668-2.6522 4.2989-0.1749 0.6527 0.6798 4.8622 0.1031 5.2144z" fill-rule="evenodd" fill-opacity=".7019608" transform="matrix(1.19879 -.3146184 .3093107 1.219499 -106.2295 53.36064)" stroke="#000" stroke-width=".7902742" fill="#99b7d6"/>
</g>
</svg>
