<?xml version="1.0" encoding="UTF-8" standalone="no"?>
<svg xmlns:rdf="http://www.w3.org/1999/02/22-rdf-syntax-ns#" xmlns="http://www.w3.org/2000/svg" version="1.1" xmlns:cc="http://creativecommons.org/ns#" xmlns:xlink="http://www.w3.org/1999/xlink" viewBox="0 0 24.017883 24.015197" xmlns:dc="http://purl.org/dc/elements/1.1/">
<metadata>
<rdf:RDF>
<cc:Work rdf:about="">
<dc:format>image/svg+xml</dc:format>
<dc:type rdf:resource="http://purl.org/dc/dcmitype/StillImage"/>
</cc:Work>
</rdf:RDF>
</metadata>
<defs>
<linearGradient id="b" y2="30.79385" gradientUnits="userSpaceOnUse" x2="917.3691" gradientTransform="matrix(1.159934,0,0,1.224222,-143.4594,-12.87852)" y1="19.1921" x1="905.4675">
<stop stop-color="#fff" offset="0"/>
<stop stop-color="#aaa" offset="1"/>
</linearGradient>
<linearGradient id="a" y2="27.32372" gradientUnits="userSpaceOnUse" x2="922.5571" y1="20.45271" x1="915.0701">
<stop stop-color="#5a5a5a" offset="0"/>
<stop offset="1"/>
</linearGradient>
</defs>
<g transform="translate(-899.98212,-4.984803)">
<g fill-rule="evenodd">
<path d="m923 6h1v21l-2 2h-21v-1h22v-22z" fill-opacity=".1786744"/>
<rect stroke-linejoin="round" style="color:#000000" height="22.03599" width="22.03876" stroke="#000" stroke-linecap="round" y="5.484803" x="900.4821" stroke-width=".9999998" fill="url(#b)"/>
</g>
<g stroke="#000" stroke-width="1px" fill="none">
<path d="m909.5 11v5"/>
<path d="m912.5 11.97746c1-0.5 3-1 3 1v3"/>
<path d="m917.5 7.470786v7.000004c0 1.15244 1 1 2 1"/>
<path d="m909.5 11.97746c1-0.5 3-1 3 1v3"/>
<path d="m903 10.97079 5 5"/>
<path d="m908 10.97079-5 5"/>
</g>
<path d="m906.5 24.5-3-3 3-3m3 6 3-3-3-3" stroke="#000" stroke-linecap="square" stroke-width="1px" fill="none"/>
<path d="m914.5068 19.4991h8.9409v8.94182h-8.9409v-8.94182z" fill-rule="evenodd" stroke="url(#a)" stroke-width=".9999998px" fill="#fff"/>
<path d="m919.0067 20.9991v6" stroke="#000" stroke-width="2" fill="none"/>
<path stroke-linejoin="round" d="m922.0067 23.9991h-6" stroke="#000" stroke-width="2" fill="none"/>
</g>
</svg>
